Based on efficientnet_b3
Sequential (Input shape: 64 x 3 x 224 x 224)
============================================================================
Layer (type)         Output Shape         Param #    Trainable 
============================================================================
                     64 x 40 x 112 x 112 
Conv2d                                    1080       False     
Identity                                                       
SiLU                                                           
Conv2d                                    360        False     
Identity                                                       
SiLU                                                           
____________________________________________________________________________
                     64 x 10 x 1 x 1     
Conv2d                                    410        False     
SiLU                                                           
____________________________________________________________________________
                     64 x 40 x 1 x 1     
Conv2d                                    440        False     
Sigmoid                                                        
____________________________________________________________________________
                     64 x 24 x 112 x 112 
Conv2d                                    960        False     
Identity                                                       
Identity                                                       
Conv2d                                    216        False     
Identity                                                       
SiLU                                                           
____________________________________________________________________________
                     64 x 6 x 1 x 1      
Conv2d                                    150        False     
SiLU                                                           
____________________________________________________________________________
                     64 x 24 x 1 x 1     
Conv2d                                    168        False     
Sigmoid                                                        
Conv2d                                    576        False     
Identity                                                       
Identity                                                       
Identity                                                       
____________________________________________________________________________
                     64 x 144 x 112 x 11 
Conv2d                                    3456       False     
Identity                                                       
SiLU                                                           
____________________________________________________________________________
                     64 x 144 x 56 x 56  
Conv2d                                    1296       False     
Identity                                                       
SiLU                                                           
____________________________________________________________________________
                     64 x 6 x 1 x 1      
Conv2d                                    870        False     
SiLU                                                           
____________________________________________________________________________
                     64 x 144 x 1 x 1    
Conv2d                                    1008       False     
Sigmoid                                                        
____________________________________________________________________________
                     64 x 32 x 56 x 56   
Conv2d                                    4608       False     
Identity                                                       
Identity                                                       
____________________________________________________________________________
                     64 x 192 x 56 x 56  
Conv2d                                    6144       False     
Identity                                                       
SiLU                                                           
Conv2d                                    1728       False     
Identity                                                       
SiLU                                                           
____________________________________________________________________________
                     64 x 8 x 1 x 1      
Conv2d                                    1544       False     
SiLU                                                           
____________________________________________________________________________
                     64 x 192 x 1 x 1    
Conv2d                                    1728       False     
Sigmoid                                                        
____________________________________________________________________________
                     64 x 32 x 56 x 56   
Conv2d                                    6144       False     
Identity                                                       
Identity                                                       
Identity                                                       
____________________________________________________________________________
                     64 x 192 x 56 x 56  
Conv2d                                    6144       False     
Identity                                                       
SiLU                                                           
Conv2d                                    1728       False     
Identity                                                       
SiLU                                                           
____________________________________________________________________________
                     64 x 8 x 1 x 1      
Conv2d                                    1544       False     
SiLU                                                           
____________________________________________________________________________
                     64 x 192 x 1 x 1    
Conv2d                                    1728       False     
Sigmoid                                                        
____________________________________________________________________________
                     64 x 32 x 56 x 56   
Conv2d                                    6144       False     
Identity                                                       
Identity                                                       
Identity                                                       
____________________________________________________________________________
                     64 x 192 x 56 x 56  
Conv2d                                    6144       False     
Identity                                                       
SiLU                                                           
____________________________________________________________________________
                     64 x 192 x 28 x 28  
Conv2d                                    4800       False     
Identity                                                       
SiLU                                                           
____________________________________________________________________________
                     64 x 8 x 1 x 1      
Conv2d                                    1544       False     
SiLU                                                           
____________________________________________________________________________
                     64 x 192 x 1 x 1    
Conv2d                                    1728       False     
Sigmoid                                                        
____________________________________________________________________________
                     64 x 48 x 28 x 28   
Conv2d                                    9216       False     
Identity                                                       
Identity                                                       
____________________________________________________________________________
                     64 x 288 x 28 x 28  
Conv2d                                    13824      False     
Identity                                                       
SiLU                                                           
Conv2d                                    7200       False     
Identity                                                       
SiLU                                                           
____________________________________________________________________________
                     64 x 12 x 1 x 1     
Conv2d                                    3468       False     
SiLU                                                           
____________________________________________________________________________
                     64 x 288 x 1 x 1    
Conv2d                                    3744       False     
Sigmoid                                                        
____________________________________________________________________________
                     64 x 48 x 28 x 28   
Conv2d                                    13824      False     
Identity                                                       
Identity                                                       
Identity                                                       
____________________________________________________________________________
                     64 x 288 x 28 x 28  
Conv2d                                    13824      False     
Identity                                                       
SiLU                                                           
Conv2d                                    7200       False     
Identity                                                       
SiLU                                                           
____________________________________________________________________________
                     64 x 12 x 1 x 1     
Conv2d                                    3468       False     
SiLU                                                           
____________________________________________________________________________
                     64 x 288 x 1 x 1    
Conv2d                                    3744       False     
Sigmoid                                                        
____________________________________________________________________________
                     64 x 48 x 28 x 28   
Conv2d                                    13824      False     
Identity                                                       
Identity                                                       
Identity                                                       
____________________________________________________________________________
                     64 x 288 x 28 x 28  
Conv2d                                    13824      False     
Identity                                                       
SiLU                                                           
____________________________________________________________________________
                     64 x 288 x 14 x 14  
Conv2d                                    2592       False     
Identity                                                       
SiLU                                                           
____________________________________________________________________________
                     64 x 12 x 1 x 1     
Conv2d                                    3468       False     
SiLU                                                           
____________________________________________________________________________
                     64 x 288 x 1 x 1    
Conv2d                                    3744       False     
Sigmoid                                                        
____________________________________________________________________________
                     64 x 96 x 14 x 14   
Conv2d                                    27648      False     
Identity                                                       
Identity                                                       
____________________________________________________________________________
                     64 x 576 x 14 x 14  
Conv2d                                    55296      False     
Identity                                                       
SiLU                                                           
Conv2d                                    5184       False     
Identity                                                       
SiLU                                                           
____________________________________________________________________________
                     64 x 24 x 1 x 1     
Conv2d                                    13848      False     
SiLU                                                           
____________________________________________________________________________
                     64 x 576 x 1 x 1    
Conv2d                                    14400      False     
Sigmoid                                                        
____________________________________________________________________________
                     64 x 96 x 14 x 14   
Conv2d                                    55296      False     
Identity                                                       
Identity                                                       
Identity                                                       
____________________________________________________________________________
                     64 x 576 x 14 x 14  
Conv2d                                    55296      False     
Identity                                                       
SiLU                                                           
Conv2d                                    5184       False     
Identity                                                       
SiLU                                                           
____________________________________________________________________________
                     64 x 24 x 1 x 1     
Conv2d                                    13848      False     
SiLU                                                           
____________________________________________________________________________
                     64 x 576 x 1 x 1    
Conv2d                                    14400      False     
Sigmoid                                                        
____________________________________________________________________________
                     64 x 96 x 14 x 14   
Conv2d                                    55296      False     
Identity                                                       
Identity                                                       
Identity                                                       
____________________________________________________________________________
                     64 x 576 x 14 x 14  
Conv2d                                    55296      False     
Identity                                                       
SiLU                                                           
Conv2d                                    5184       False     
Identity                                                       
SiLU                                                           
____________________________________________________________________________
                     64 x 24 x 1 x 1     
Conv2d                                    13848      False     
SiLU                                                           
____________________________________________________________________________
                     64 x 576 x 1 x 1    
Conv2d                                    14400      False     
Sigmoid                                                        
____________________________________________________________________________
                     64 x 96 x 14 x 14   
Conv2d                                    55296      False     
Identity                                                       
Identity                                                       
Identity                                                       
____________________________________________________________________________
                     64 x 576 x 14 x 14  
Conv2d                                    55296      False     
Identity                                                       
SiLU                                                           
Conv2d                                    5184       False     
Identity                                                       
SiLU                                                           
____________________________________________________________________________
                     64 x 24 x 1 x 1     
Conv2d                                    13848      False     
SiLU                                                           
____________________________________________________________________________
                     64 x 576 x 1 x 1    
Conv2d                                    14400      False     
Sigmoid                                                        
____________________________________________________________________________
                     64 x 96 x 14 x 14   
Conv2d                                    55296      False     
Identity                                                       
Identity                                                       
Identity                                                       
____________________________________________________________________________
                     64 x 576 x 14 x 14  
Conv2d                                    55296      False     
Identity                                                       
SiLU                                                           
Conv2d                                    14400      False     
Identity                                                       
SiLU                                                           
____________________________________________________________________________
                     64 x 24 x 1 x 1     
Conv2d                                    13848      False     
SiLU                                                           
____________________________________________________________________________
                     64 x 576 x 1 x 1    
Conv2d                                    14400      False     
Sigmoid                                                        
____________________________________________________________________________
                     64 x 136 x 14 x 14  
Conv2d                                    78336      False     
Identity                                                       
Identity                                                       
____________________________________________________________________________
                     64 x 816 x 14 x 14  
Conv2d                                    110976     False     
Identity                                                       
SiLU                                                           
Conv2d                                    20400      False     
Identity                                                       
SiLU                                                           
____________________________________________________________________________
                     64 x 34 x 1 x 1     
Conv2d                                    27778      False     
SiLU                                                           
____________________________________________________________________________
                     64 x 816 x 1 x 1    
Conv2d                                    28560      False     
Sigmoid                                                        
____________________________________________________________________________
                     64 x 136 x 14 x 14  
Conv2d                                    110976     False     
Identity                                                       
Identity                                                       
Identity                                                       
____________________________________________________________________________
                     64 x 816 x 14 x 14  
Conv2d                                    110976     False     
Identity                                                       
SiLU                                                           
Conv2d                                    20400      False     
Identity                                                       
SiLU                                                           
____________________________________________________________________________
                     64 x 34 x 1 x 1     
Conv2d                                    27778      False     
SiLU                                                           
____________________________________________________________________________
                     64 x 816 x 1 x 1    
Conv2d                                    28560      False     
Sigmoid                                                        
____________________________________________________________________________
                     64 x 136 x 14 x 14  
Conv2d                                    110976     False     
Identity                                                       
Identity                                                       
Identity                                                       
____________________________________________________________________________
                     64 x 816 x 14 x 14  
Conv2d                                    110976     False     
Identity                                                       
SiLU                                                           
Conv2d                                    20400      False     
Identity                                                       
SiLU                                                           
____________________________________________________________________________
                     64 x 34 x 1 x 1     
Conv2d                                    27778      False     
SiLU                                                           
____________________________________________________________________________
                     64 x 816 x 1 x 1    
Conv2d                                    28560      False     
Sigmoid                                                        
____________________________________________________________________________
                     64 x 136 x 14 x 14  
Conv2d                                    110976     False     
Identity                                                       
Identity                                                       
Identity                                                       
____________________________________________________________________________
                     64 x 816 x 14 x 14  
Conv2d                                    110976     False     
Identity                                                       
SiLU                                                           
Conv2d                                    20400      False     
Identity                                                       
SiLU                                                           
____________________________________________________________________________
                     64 x 34 x 1 x 1     
Conv2d                                    27778      False     
SiLU                                                           
____________________________________________________________________________
                     64 x 816 x 1 x 1    
Conv2d                                    28560      False     
Sigmoid                                                        
____________________________________________________________________________
                     64 x 136 x 14 x 14  
Conv2d                                    110976     False     
Identity                                                       
Identity                                                       
Identity                                                       
____________________________________________________________________________
                     64 x 816 x 14 x 14  
Conv2d                                    110976     False     
Identity                                                       
SiLU                                                           
____________________________________________________________________________
                     64 x 816 x 7 x 7    
Conv2d                                    20400      False     
Identity                                                       
SiLU                                                           
____________________________________________________________________________
                     64 x 34 x 1 x 1     
Conv2d                                    27778      False     
SiLU                                                           
____________________________________________________________________________
                     64 x 816 x 1 x 1    
Conv2d                                    28560      False     
Sigmoid                                                        
____________________________________________________________________________
                     64 x 232 x 7 x 7    
Conv2d                                    189312     False     
Identity                                                       
Identity                                                       
____________________________________________________________________________
                     64 x 1392 x 7 x 7   
Conv2d                                    322944     False     
Identity                                                       
SiLU                                                           
Conv2d                                    34800      False     
Identity                                                       
SiLU                                                           
____________________________________________________________________________
                     64 x 58 x 1 x 1     
Conv2d                                    80794      False     
SiLU                                                           
____________________________________________________________________________
                     64 x 1392 x 1 x 1   
Conv2d                                    82128      False     
Sigmoid                                                        
____________________________________________________________________________
                     64 x 232 x 7 x 7    
Conv2d                                    322944     False     
Identity                                                       
Identity                                                       
Identity                                                       
____________________________________________________________________________
                     64 x 1392 x 7 x 7   
Conv2d                                    322944     False     
Identity                                                       
SiLU                                                           
Conv2d                                    34800      False     
Identity                                                       
SiLU                                                           
____________________________________________________________________________
                     64 x 58 x 1 x 1     
Conv2d                                    80794      False     
SiLU                                                           
____________________________________________________________________________
                     64 x 1392 x 1 x 1   
Conv2d                                    82128      False     
Sigmoid                                                        
____________________________________________________________________________
                     64 x 232 x 7 x 7    
Conv2d                                    322944     False     
Identity                                                       
Identity                                                       
Identity                                                       
____________________________________________________________________________
                     64 x 1392 x 7 x 7   
Conv2d                                    322944     False     
Identity                                                       
SiLU                                                           
Conv2d                                    34800      False     
Identity                                                       
SiLU                                                           
____________________________________________________________________________
                     64 x 58 x 1 x 1     
Conv2d                                    80794      False     
SiLU                                                           
____________________________________________________________________________
                     64 x 1392 x 1 x 1   
Conv2d                                    82128      False     
Sigmoid                                                        
____________________________________________________________________________
                     64 x 232 x 7 x 7    
Conv2d                                    322944     False     
Identity                                                       
Identity                                                       
Identity                                                       
____________________________________________________________________________
                     64 x 1392 x 7 x 7   
Conv2d                                    322944     False     
Identity                                                       
SiLU                                                           
Conv2d                                    34800      False     
Identity                                                       
SiLU                                                           
____________________________________________________________________________
                     64 x 58 x 1 x 1     
Conv2d                                    80794      False     
SiLU                                                           
____________________________________________________________________________
                     64 x 1392 x 1 x 1   
Conv2d                                    82128      False     
Sigmoid                                                        
____________________________________________________________________________
                     64 x 232 x 7 x 7    
Conv2d                                    322944     False     
Identity                                                       
Identity                                                       
Identity                                                       
____________________________________________________________________________
                     64 x 1392 x 7 x 7   
Conv2d                                    322944     False     
Identity                                                       
SiLU                                                           
Conv2d                                    34800      False     
Identity                                                       
SiLU                                                           
____________________________________________________________________________
                     64 x 58 x 1 x 1     
Conv2d                                    80794      False     
SiLU                                                           
____________________________________________________________________________
                     64 x 1392 x 1 x 1   
Conv2d                                    82128      False     
Sigmoid                                                        
____________________________________________________________________________
                     64 x 232 x 7 x 7    
Conv2d                                    322944     False     
Identity                                                       
Identity                                                       
Identity                                                       
____________________________________________________________________________
                     64 x 1392 x 7 x 7   
Conv2d                                    322944     False     
Identity                                                       
SiLU                                                           
Conv2d                                    12528      False     
Identity                                                       
SiLU                                                           
____________________________________________________________________________
                     64 x 58 x 1 x 1     
Conv2d                                    80794      False     
SiLU                                                           
____________________________________________________________________________
                     64 x 1392 x 1 x 1   
Conv2d                                    82128      False     
Sigmoid                                                        
____________________________________________________________________________
                     64 x 384 x 7 x 7    
Conv2d                                    534528     False     
Identity                                                       
Identity                                                       
____________________________________________________________________________
                     64 x 2304 x 7 x 7   
Conv2d                                    884736     False     
Identity                                                       
SiLU                                                           
Conv2d                                    20736      False     
Identity                                                       
SiLU                                                           
____________________________________________________________________________
                     64 x 96 x 1 x 1     
Conv2d                                    221280     False     
SiLU                                                           
____________________________________________________________________________
                     64 x 2304 x 1 x 1   
Conv2d                                    223488     False     
Sigmoid                                                        
____________________________________________________________________________
                     64 x 384 x 7 x 7    
Conv2d                                    884736     False     
Identity                                                       
Identity                                                       
Identity                                                       
____________________________________________________________________________
                     64 x 1536 x 7 x 7   
Conv2d                                    589824     False     
Identity                                                       
SiLU                                                           
____________________________________________________________________________
                     64 x 1536 x 1 x 1   
AdaptiveAvgPool2d                                              
AdaptiveMaxPool2d                                              
____________________________________________________________________________
                     64 x 3072           
Flatten                                                        
BatchNorm1d                               6144       True      
Dropout                                                        
____________________________________________________________________________
                     64 x 512            
Linear                                    1572864    True      
ReLU                                                           
BatchNorm1d                               1024       True      
Dropout                                                        
____________________________________________________________________________
                     64 x 38             
Linear                                    19456      True      
____________________________________________________________________________

Total params: 12,208,424
Total trainable params: 1,599,488
Total non-trainable params: 10,608,936

Optimizer used: <function Adam at 0x000001E1F38DEAC0>
Loss function: FlattenedLoss of CrossEntropyLoss()

Model frozen up to parameter group #1

Callbacks:
  - TrainEvalCallback
  - CastToTensor
  - Recorder
  - ProgressCallback